WDM 출시일,거래처 이름,"BP
(거래처 번호)","아티스트
(커뮤니티명)",아티스트 멤버,WBS코드,상품ID,Product ID,상품명,옵션ID,옵션명
2023. 5. 2,"DH Co., Ltd.",40009724,AKB48,Momoka Onishi,N160_230001-104,d142,142,Momoka Onishi,143.wde8918e7.jelly.wdm.time.720.1682574871.0,30일 DM
2023. 5. 2,"DH Co., Ltd.",40009724,AKB48,Momoka Onishi,N160_230001-104,d142,142,Momoka Onishi,143.wde8918e7.jelly.wdm.time.1440.1682574871.1,60일 DM
2023. 5. 2,"DH Co., Ltd.",40009724,AKB48,Momoka Onishi,N160_230001-104,d142,142,Momoka Onishi,143.wde8918e7.jelly.wdm.time.2160.1682574871.2,90일 DM
2023. 5. 2,"DH Co., Ltd.",40009724,AKB48,Momoka Onishi,N160_230001-104,d142,142,Momoka Onishi,143.wde8918e7.jelly.wdm.time.864.1682574871.3,30일 DM+6일
2023. 5. 2,"DH Co., Ltd.",40009724,AKB48,Momoka Onishi,N160_230001-104,d142,142,Momoka Onishi,143.wde8918e7.jelly.wdm.time.1728.1682574871.4,60일 DM+12일
2023. 5. 2,"DH Co., Ltd.",40009724,AKB48,Momoka Onishi,N160_230001-104,d142,142,Momoka Onishi,143.wde8918e7.jelly.wdm.time.2592.1682574871.5,90일 DM+18일
2023. 5. 2,"DH Co., Ltd.",40009724,AKB48,Maho Omori,N160_230001-104,d143,143,Maho Omori,143.wdef218e7.jelly.wdm.time.720.1682930777.0,30일 DM
2023. 5. 2,"DH Co., Ltd.",40009724,AKB48,Maho Omori,N160_230001-104,d143,143,Maho Omori,143.wdef218e7.jelly.wdm.time.1440.1682930777.1,60일 DM
2023. 5. 2,"DH Co., Ltd.",40009724,AKB48,Maho Omori,N160_230001-104,d143,143,Maho Omori,143.wdef218e7.jelly.wdm.time.2160.1682930777.2,90일 DM
2023. 5. 2,"DH Co., Ltd.",40009724,AKB48,Maho Omori,N160_230001-104,d143,143,Maho Omori,143.wdef218e7.jelly.wdm.time.864.1682930777.3,30일 DM+6일
2023. 5. 2,"DH Co., Ltd.",40009724,AKB48,Maho Omori,N160_230001-104,d143,143,Maho Omori,143.wdef218e7.jelly.wdm.time.1728.1682930777.4,60일 DM+12일
2023. 5. 2,"DH Co., Ltd.",40009724,AKB48,Maho Omori,N160_230001-104,d143,143,Maho Omori,143.wdef218e7.jelly.wdm.time.2592.1682930777.5,90일 DM+18일
2023. 5. 2,"DH Co., Ltd.",40009724,AKB48,Rin Okabe,N160_230001-104,d144,144,Rin Okabe,143.wdf3118e7.jelly.wdm.time.720.1682930987.0,30일 DM
2023. 5. 2,"DH Co., Ltd.",40009724,AKB48,Rin Okabe,N160_230001-104,d144,144,Rin Okabe,143.wdf3118e7.jelly.wdm.time.1440.1682930987.1,60일 DM
2023. 5. 2,"DH Co., Ltd.",40009724,AKB48,Rin Okabe,N160_230001-104,d144,144,Rin Okabe,143.wdf3118e7.jelly.wdm.time.2160.1682930987.2,90일 DM
2023. 5. 2,"DH Co., Ltd.",40009724,AKB48,Rin Okabe,N160_230001-104,d144,144,Rin Okabe,143.wdf3118e7.jelly.wdm.time.864.1682930987.3,30일 DM+6일
2023. 5. 2,"DH Co., Ltd.",40009724,AKB48,Rin Okabe,N160_230001-104,d144,144,Rin Okabe,143.wdf3118e7.jelly.wdm.time.1728.1682930987.4,60일 DM+12일
2023. 5. 2,"DH Co., Ltd.",40009724,AKB48,Rin Okabe,N160_230001-104,d144,144,Rin Okabe,143.wdf3118e7.jelly.wdm.time.2592.1682930987.5,90일 DM+18일
2023. 5. 2,"DH Co., Ltd.",40009724,AKB48,Yui Oguri,N160_230001-104,d145,145,Yui Oguri,143.wdf7018e7.jelly.wdm.time.720.1682931116.0,30일 DM
2023. 5. 2,"DH Co., Ltd.",40009724,AKB48,Yui Oguri,N160_230001-104,d145,145,Yui Oguri,143.wdf7018e7.jelly.wdm.time.1440.1682931116.1,60일 DM
2023. 5. 2,"DH Co., Ltd.",40009724,AKB48,Yui Oguri,N160_230001-104,d145,145,Yui Oguri,143.wdf7018e7.jelly.wdm.time.2160.1682931116.2,90일 DM
2023. 5. 2,"DH Co., Ltd.",40009724,AKB48,Yui Oguri,N160_230001-104,d145,145,Yui Oguri,143.wdf7018e7.jelly.wdm.time.864.1682931116.3,30일 DM+6일
2023. 5. 2,"DH Co., Ltd.",40009724,AKB48,Yui Oguri,N160_230001-104,d145,145,Yui Oguri,143.wdf7018e7.jelly.wdm.time.1728.1682931116.4,60일 DM+12일
2023. 5. 2,"DH Co., Ltd.",40009724,AKB48,Yui Oguri,N160_230001-104,d145,145,Yui Oguri,143.wdf7018e7.jelly.wdm.time.2592.1682931116.5,90일 DM+18일
2023. 5. 2,"DH Co., Ltd.",40009724,AKB48,Erina Oda,N160_230001-104,d146,146,Erina Oda,143.wdfb618e7.jelly.wdm.time.720.1682931279.0,30일 DM
2023. 5. 2,"DH Co., Ltd.",40009724,AKB48,Erina Oda,N160_230001-104,d146,146,Erina Oda,143.wdfb618e7.jelly.wdm.time.1440.1682931279.1,60일 DM
2023. 5. 2,"DH Co., Ltd.",40009724,AKB48,Erina Oda,N160_230001-104,d146,146,Erina Oda,143.wdfb618e7.jelly.wdm.time.2160.1682931279.2,90일 DM
2023. 5. 2,"DH Co., Ltd.",40009724,AKB48,Erina Oda,N160_230001-104,d146,146,Erina Oda,143.wdfb618e7.jelly.wdm.time.864.1682931279.3,30일 DM+6일
2023. 5. 2,"DH Co., Ltd.",40009724,AKB48,Erina Oda,N160_230001-104,d146,146,Erina Oda,143.wdfb618e7.jelly.wdm.time.1728.1682931279.4,60일 DM+12일
2023. 5. 2,"DH Co., Ltd.",40009724,AKB48,Erina Oda,N160_230001-104,d146,146,Erina Oda,143.wdfb618e7.jelly.wdm.time.2592.1682931279.5,90일 DM+18일
2023. 5. 2,"DH Co., Ltd.",40009724,AKB48,Yuki Kashiwagi,N160_230001-104,d147,147,Yuki Kashiwagi,143.wdfee18e7.jelly.wdm.time.720.1682932145.0,30일 DM
2023. 5. 2,"DH Co., Ltd.",40009724,AKB48,Yuki Kashiwagi,N160_230001-104,d147,147,Yuki Kashiwagi,143.wdfee18e7.jelly.wdm.time.1440.1682932145.1,60일 DM
2023. 5. 2,"DH Co., Ltd.",40009724,AKB48,Yuki Kashiwagi,N160_230001-104,d147,147,Yuki Kashiwagi,143.wdfee18e7.jelly.wdm.time.2160.1682932145.2,90일 DM
2023. 5. 2,"DH Co., Ltd.",40009724,AKB48,Yuki Kashiwagi,N160_230001-104,d147,147,Yuki Kashiwagi,143.wdfee18e7.jelly.wdm.time.864.1682932145.3,30일 DM+6일
2023. 5. 2,"DH Co., Ltd.",40009724,AKB48,Yuki Kashiwagi,N160_230001-104,d147,147,Yuki Kashiwagi,143.wdfee18e7.jelly.wdm.time.1728.1682932145.4,60일 DM+12일
2023. 5. 2,"DH Co., Ltd.",40009724,AKB48,Yuki Kashiwagi,N160_230001-104,d147,147,Yuki Kashiwagi,143.wdfee18e7.jelly.wdm.time.2592.1682932145.5,90일 DM+18일
2023. 5. 2,"DH Co., Ltd.",40009724,AKB48,Narumi Kuranoo,N160_230001-104,d148,148,Narumi Kuranoo,143.we05718e7.jelly.wdm.time.720.1682932303.0,30일 DM
2023. 5. 2,"DH Co., Ltd.",40009724,AKB48,Narumi Kuranoo,N160_230001-104,d148,148,Narumi Kuranoo,143.we05718e7.jelly.wdm.time.1440.1682932303.1,60일 DM
2023. 5. 2,"DH Co., Ltd.",40009724,AKB48,Narumi Kuranoo,N160_230001-104,d148,148,Narumi Kuranoo,143.we05718e7.jelly.wdm.time.2160.1682932303.2	,90일 DM
2023. 5. 2,"DH Co., Ltd.",40009724,AKB48,Narumi Kuranoo,N160_230001-104,d148,148,Narumi Kuranoo,143.we05718e7.jelly.wdm.time.864.1682932303.3,30일 DM+6일
2023. 5. 2,"DH Co., Ltd.",40009724,AKB48,Narumi Kuranoo,N160_230001-104,d148,148,Narumi Kuranoo,143.we05718e7.jelly.wdm.time.1728.1682932303.4,60일 DM+12일
2023. 5. 2,"DH Co., Ltd.",40009724,AKB48,Narumi Kuranoo,N160_230001-104,d148,148,Narumi Kuranoo,143.we05718e7.jelly.wdm.time.2592.1682932303.5,90일 DM+18일
2023. 5. 2,"DH Co., Ltd.",40009724,AKB48,Airi Sato,N160_230001-104,d149,149,Airi Sato,143.we08f18e7.jelly.wdm.time.720.1682932416.0,30일 DM
2023. 5. 2,"DH Co., Ltd.",40009724,AKB48,Airi Sato,N160_230001-104,d149,149,Airi Sato,143.we08f18e7.jelly.wdm.time.1440.1682932416.1,60일 DM
2023. 5. 2,"DH Co., Ltd.",40009724,AKB48,Airi Sato,N160_230001-104,d149,149,Airi Sato,143.we08f18e7.jelly.wdm.time.2160.1682932416.2,90일 DM
2023. 5. 2,"DH Co., Ltd.",40009724,AKB48,Airi Sato,N160_230001-104,d149,149,Airi Sato,143.we08f18e7.jelly.wdm.time.864.1682932416.3,30일 DM+6일
2023. 5. 2,"DH Co., Ltd.",40009724,AKB48,Airi Sato,N160_230001-104,d149,149,Airi Sato,143.we08f18e7.jelly.wdm.time.1728.1682932416.4,60일 DM+12일
2023. 5. 2,"DH Co., Ltd.",40009724,AKB48,Airi Sato,N160_230001-104,d149,149,Airi Sato,143.we08f18e7.jelly.wdm.time.2592.1682932416.5,90일 DM+18일
2023. 5. 2,"DH Co., Ltd.",40009724,AKB48,Erii Chiba,N160_230001-104,d150,150,Erii Chiba,143.we0c718e7.jelly.wdm.time.720.1682932670.0,30일 DM
2023. 5. 2,"DH Co., Ltd.",40009724,AKB48,Erii Chiba,N160_230001-104,d150,150,Erii Chiba,143.we0c718e7.jelly.wdm.time.1440.1682932670.1,60일 DM
2023. 5. 2,"DH Co., Ltd.",40009724,AKB48,Erii Chiba,N160_230001-104,d150,150,Erii Chiba,143.we0c718e7.jelly.wdm.time.2160.1682932670.2,90일 DM
2023. 5. 2,"DH Co., Ltd.",40009724,AKB48,Erii Chiba,N160_230001-104,d150,150,Erii Chiba,143.we0c718e7.jelly.wdm.time.864.1682932670.3,30일 DM+6일
2023. 5. 2,"DH Co., Ltd.",40009724,AKB48,Erii Chiba,N160_230001-104,d150,150,Erii Chiba,143.we0c718e7.jelly.wdm.time.1728.1682932670.4,60일 DM+12일
2023. 5. 2,"DH Co., Ltd.",40009724,AKB48,Erii Chiba,N160_230001-104,d150,150,Erii Chiba,143.we0c718e7.jelly.wdm.time.2592.1682932670.5,90일 DM+18일
2023. 5. 2,"DH Co., Ltd.",40009724,AKB48,Yuki Hirata,N160_230001-104,"d151","51",Yuki Hirata,143.we0f818e7.jelly.wdm.time.720.1682932785.0,30일 DM
2023. 5. 2,"DH Co., Ltd.",40009724,AKB48,Yuki Hirata,N160_230001-104,"d151","51",Yuki Hirata,143.we0f818e7.jelly.wdm.time.1440.1682932785.1,60일 DM
2023. 5. 2,"DH Co., Ltd.",40009724,AKB48,Yuki Hirata,N160_230001-104,"d151","51",Yuki Hirata,143.we0f818e7.jelly.wdm.time.2160.1682932785.2,90일 DM
2023. 5. 2,"DH Co., Ltd.",40009724,AKB48,Yuki Hirata,N160_230001-104,"d151","51",Yuki Hirata,143.we0f818e7.jelly.wdm.time.864.1682932785.3,30일 DM+6일
2023. 5. 2,"DH Co., Ltd.",40009724,AKB48,Yuki Hirata,N160_230001-104,"d151","51",Yuki Hirata,143.we0f818e7.jelly.wdm.time.1728.1682932785.4,60일 DM+12일
2023. 5. 2,"DH Co., Ltd.",40009724,AKB48,Yuki Hirata,N160_230001-104,"d151","51",Yuki Hirata,143.we0f818e7.jelly.wdm.time.2592.1682932785.5,90일 DM+18일
2023. 5. 2,"DH Co., Ltd.",40009724,AKB48,Hitomi Honda,N160_230001-104,d152,152,Hitomi Honda,143.we13e18e7.jelly.wdm.time.720.1682932928.0,30일 DM
2023. 5. 2,"DH Co., Ltd.",40009724,AKB48,Hitomi Honda,N160_230001-104,d152,152,Hitomi Honda,143.we13e18e7.jelly.wdm.time.1440.1682932928.1,60일 DM
2023. 5. 2,"DH Co., Ltd.",40009724,AKB48,Hitomi Honda,N160_230001-104,d152,152,Hitomi Honda,143.we13e18e7.jelly.wdm.time.2160.1682932928.2,90일 DM
2023. 5. 2,"DH Co., Ltd.",40009724,AKB48,Hitomi Honda,N160_230001-104,d152,152,Hitomi Honda,143.we13e18e7.jelly.wdm.time.864.1682932928.3,30일 DM+6일
2023. 5. 2,"DH Co., Ltd.",40009724,AKB48,Hitomi Honda,N160_230001-104,d152,152,Hitomi Honda,143.we13e18e7.jelly.wdm.time.1728.1682932928.4,60일 DM+12일
2023. 5. 2,"DH Co., Ltd.",40009724,AKB48,Hitomi Honda,N160_230001-104,d152,152,Hitomi Honda,143.we13e18e7.jelly.wdm.time.2592.1682932928.5,90일 DM+18일
2023. 5. 2,"DH Co., Ltd.",40009724,AKB48,Mion Mukaichi,N160_230001-104,d154,154,Mion Mukaichi,143.we17618e7.jelly.wdm.time.720.1682933046.0,30일 DM
2023. 5. 2,"DH Co., Ltd.",40009724,AKB48,Mion Mukaichi,N160_230001-104,d154,154,Mion Mukaichi,143.we17618e7.jelly.wdm.time.1440.1682933046.1,60일 DM
2023. 5. 2,"DH Co., Ltd.",40009724,AKB48,Mion Mukaichi,N160_230001-104,d154,154,Mion Mukaichi,143.we17618e7.jelly.wdm.time.2160.1682933046.2,90일 DM
2023. 5. 2,"DH Co., Ltd.",40009724,AKB48,Mion Mukaichi,N160_230001-104,d154,154,Mion Mukaichi,143.we17618e7.jelly.wdm.time.864.1682933046.3,30일 DM+6일
2023. 5. 2,"DH Co., Ltd.",40009724,AKB48,Mion Mukaichi,N160_230001-104,d154,154,Mion Mukaichi,143.we17618e7.jelly.wdm.time.1728.1682933046.4,60일 DM+12일
2023. 5. 2,"DH Co., Ltd.",40009724,AKB48,Mion Mukaichi,N160_230001-104,d154,154,Mion Mukaichi,143.we17618e7.jelly.wdm.time.2592.1682933046.5,90일 DM+18일
2023. 5. 2,"DH Co., Ltd.",40009724,AKB48,Yuiri Murayama,N160_230001-104,d155,155,Yuiri Murayama,143.we1b518e7.jelly.wdm.time.720.1682933182.0,30일 DM
2023. 5. 2,"DH Co., Ltd.",40009724,AKB48,Yuiri Murayama,N160_230001-104,d155,155,Yuiri Murayama,143.we1b518e7.jelly.wdm.time.1440.1682933182.1,60일 DM
2023. 5. 2,"DH Co., Ltd.",40009724,AKB48,Yuiri Murayama,N160_230001-104,d155,155,Yuiri Murayama,143.we1b518e7.jelly.wdm.time.2160.1682933182.2,90일 DM
2023. 5. 2,"DH Co., Ltd.",40009724,AKB48,Yuiri Murayama,N160_230001-104,d155,155,Yuiri Murayama,143.we1b518e7.jelly.wdm.time.864.1682933182.3,30일 DM+6일
2023. 5. 2,"DH Co., Ltd.",40009724,AKB48,Yuiri Murayama,N160_230001-104,d155,155,Yuiri Murayama,143.we1b518e7.jelly.wdm.time.1728.1682933182.4,60일 DM+12일
2023. 5. 2,"DH Co., Ltd.",40009724,AKB48,Yuiri Murayama,N160_230001-104,d155,155,Yuiri Murayama,143.we1b518e7.jelly.wdm.time.2592.1682933182.5,90일 DM+18일
2023. 5. 2,"DH Co., Ltd.",40009724,AKB48,Shinobu Mogi,N160_230001-104,d156,156,Shinobu Mogi,143.we1f418e7.jelly.wdm.time.720.1682933571.0,30일 DM
2023. 5. 2,"DH Co., Ltd.",40009724,AKB48,Shinobu Mogi,N160_230001-104,d156,156,Shinobu Mogi,143.we1f418e7.jelly.wdm.time.1440.1682933571.1,60일 DM
2023. 5. 2,"DH Co., Ltd.",40009724,AKB48,Shinobu Mogi,N160_230001-104,d156,156,Shinobu Mogi,143.we1f418e7.jelly.wdm.time.2160.1682933571.2,90일 DM
2023. 5. 2,"DH Co., Ltd.",40009724,AKB48,Shinobu Mogi,N160_230001-104,d156,156,Shinobu Mogi,143.we1f418e7.jelly.wdm.time.864.1682933571.3	,30일 DM+6일
2023. 5. 2,"DH Co., Ltd.",40009724,AKB48,Shinobu Mogi,N160_230001-104,d156,156,Shinobu Mogi,143.we1f418e7.jelly.wdm.time.1728.1682933571.4,60일 DM+12일
2023. 5. 2,"DH Co., Ltd.",40009724,AKB48,Shinobu Mogi,N160_230001-104,d156,156,Shinobu Mogi,143.we1f418e7.jelly.wdm.time.2592.1682933571.5,90일 DM+18일
2023. 5. 2,"DH Co., Ltd.",40009724,AKB48,Mizuki Yamauchi,N160_230001-104,d157,157,Mizuki Yamauchi,143.we28718e7.jelly.wdm.time.720.1682933702.0,30일 DM
2023. 5. 2,"DH Co., Ltd.",40009724,AKB48,Mizuki Yamauchi,N160_230001-104,d157,157,Mizuki Yamauchi,143.we28718e7.jelly.wdm.time.1440.1682933702.1,60일 DM
2023. 5. 2,"DH Co., Ltd.",40009724,AKB48,Mizuki Yamauchi,N160_230001-104,d157,157,Mizuki Yamauchi,143.we28718e7.jelly.wdm.time.2160.1682933702.2,90일 DM
2023. 5. 2,"DH Co., Ltd.",40009724,AKB48,Mizuki Yamauchi,N160_230001-104,d157,157,Mizuki Yamauchi,143.we28718e7.jelly.wdm.time.864.1682933702.3,30일 DM+6일
2023. 5. 2,"DH Co., Ltd.",40009724,AKB48,Mizuki Yamauchi,N160_230001-104,d157,157,Mizuki Yamauchi,143.we28718e7.jelly.wdm.time.1728.1682933702.4,60일 DM+12일
2023. 5. 2,"DH Co., Ltd.",40009724,AKB48,Mizuki Yamauchi,N160_230001-104,d157,157,Mizuki Yamauchi,143.we28718e7.jelly.wdm.time.2592.1682933702.5,90일 DM+18일
2023. 5. 2,"DH Co., Ltd.",40009724,AKB48,Sora Yamazaki,N160_230001-104,d158,158,Sora Yamazaki,143.we2cd18e7.jelly.wdm.time.720.1682933862.0,30일 DM
2023. 5. 2,"DH Co., Ltd.",40009724,AKB48,Sora Yamazaki,N160_230001-104,d158,158,Sora Yamazaki,143.we2cd18e7.jelly.wdm.time.1440.1682933862.1,60일 DM
2023. 5. 2,"DH Co., Ltd.",40009724,AKB48,Sora Yamazaki,N160_230001-104,d158,158,Sora Yamazaki,143.we2cd18e7.jelly.wdm.time.2160.1682933862.2,90일 DM
2023. 5. 2,"DH Co., Ltd.",40009724,AKB48,Sora Yamazaki,N160_230001-104,d158,158,Sora Yamazaki,143.we2cd18e7.jelly.wdm.time.864.1682933862.3,30일 DM+6일
2023. 5. 2,"DH Co., Ltd.",40009724,AKB48,Sora Yamazaki,N160_230001-104,d158,158,Sora Yamazaki,143.we2cd18e7.jelly.wdm.time.1728.1682933862.4,60일 DM+12일
2023. 5. 2,"DH Co., Ltd.",40009724,AKB48,Sora Yamazaki,N160_230001-104,d158,158,Sora Yamazaki,143.we2cd18e7.jelly.wdm.time.2592.1682933862.5	,90일 DM+18일
2023. 5. 4,(M25)엠이오,1188602415,CLASS:y,SEONYOU,O160_230001-104,d166,166,SEONYOU,144.w2abf18f9.jelly.wdm.time.720.1683120784.0,30일 DM
2023. 5. 4,(M25)엠이오,1188602415,CLASS:y,SEONYOU,O160_230001-104,d166,166,SEONYOU,144.w2abf18f9.jelly.wdm.time.1440.1683120784.1,60일 DM
2023. 5. 4,(M25)엠이오,1188602415,CLASS:y,SEONYOU,O160_230001-104,d166,166,SEONYOU,144.w2abf18f9.jelly.wdm.time.2160.1683120784.2,90일 DM
2023. 5. 4,(M25)엠이오,1188602415,CLASS:y,SEONYOU,O160_230001-104,d166,166,SEONYOU,144.w2abf18f9.jelly.wdm.time.864.1683120784.3,30일 DM+6일
2023. 5. 4,(M25)엠이오,1188602415,CLASS:y,SEONYOU,O160_230001-104,d166,166,SEONYOU,144.w2abf18f9.jelly.wdm.time.1728.1683120784.4,60일 DM+12일
2023. 5. 4,(M25)엠이오,1188602415,CLASS:y,SEONYOU,O160_230001-104,d166,166,SEONYOU,144.w2abf18f9.jelly.wdm.time.2592.1683120784.5,90일 DM+18일
2023. 5. 4,(M25)엠이오,1188602415,CLASS:y,BOEUN,O160_230001-104,d165,165,BOEUN,144.w2a7918f9.jelly.wdm.time.720.1683120730.0,30일 DM
2023. 5. 4,(M25)엠이오,1188602415,CLASS:y,BOEUN,O160_230001-104,d165,165,BOEUN,144.w2a7918f9.jelly.wdm.time.1440.1683120730.1,60일 DM
2023. 5. 4,(M25)엠이오,1188602415,CLASS:y,BOEUN,O160_230001-104,d165,165,BOEUN,144.w2a7918f9.jelly.wdm.time.2160.1683120730.2,90일 DM
2023. 5. 4,(M25)엠이오,1188602415,CLASS:y,BOEUN,O160_230001-104,d165,165,BOEUN,144.w2a7918f9.jelly.wdm.time.864.1683120730.3,30일 DM+6일
2023. 5. 4,(M25)엠이오,1188602415,CLASS:y,BOEUN,O160_230001-104,d165,165,BOEUN,144.w2a7918f9.jelly.wdm.time.1728.1683120730.4,60일 DM+12일
2023. 5. 4,(M25)엠이오,1188602415,CLASS:y,BOEUN,O160_230001-104,d165,165,BOEUN,144.w2a7918f9.jelly.wdm.time.2592.1683120730.5,90일 DM+18일
2023. 5. 4,(M25)엠이오,1188602415,CLASS:y,JIMIN,O160_230001-104,d164,164,JIMIN,144.w2a4118f9.jelly.wdm.time.720.1683120664.0,30일 DM
2023. 5. 4,(M25)엠이오,1188602415,CLASS:y,JIMIN,O160_230001-104,d164,164,JIMIN,144.w2a4118f9.jelly.wdm.time.1440.1683120664.1,60일 DM
2023. 5. 4,(M25)엠이오,1188602415,CLASS:y,JIMIN,O160_230001-104,d164,164,JIMIN,144.w2a4118f9.jelly.wdm.time.2160.1683120664.2,90일 DM
2023. 5. 4,(M25)엠이오,1188602415,CLASS:y,JIMIN,O160_230001-104,d164,164,JIMIN,144.w2a4118f9.jelly.wdm.time.864.1683120664.3	,30일 DM+6일
2023. 5. 4,(M25)엠이오,1188602415,CLASS:y,JIMIN,O160_230001-104,d164,164,JIMIN,144.w2a4118f9.jelly.wdm.time.1728.1683120664.4,60일 DM+12일
2023. 5. 4,(M25)엠이오,1188602415,CLASS:y,JIMIN,O160_230001-104,d164,164,JIMIN,144.w2a4118f9.jelly.wdm.time.2592.1683120664.5,90일 DM+18일
2023. 5. 4,(M25)엠이오,1188602415,CLASS:y,RIWON,O160_230001-104,d163,163,RIWON,144.w2a1718f9.jelly.wdm.time.720.1683120590.0,30일 DM
2023. 5. 4,(M25)엠이오,1188602415,CLASS:y,RIWON,O160_230001-104,d163,163,RIWON,144.w2a1718f9.jelly.wdm.time.1440.1683120590.1,60일 DM
2023. 5. 4,(M25)엠이오,1188602415,CLASS:y,RIWON,O160_230001-104,d163,163,RIWON,144.w2a1718f9.jelly.wdm.time.2160.1683120590.2,90일 DM
2023. 5. 4,(M25)엠이오,1188602415,CLASS:y,RIWON,O160_230001-104,d163,163,RIWON,144.w2a1718f9.jelly.wdm.time.864.1683120590.3,30일 DM+6일
2023. 5. 4,(M25)엠이오,1188602415,CLASS:y,RIWON,O160_230001-104,d163,163,RIWON,144.w2a1718f9.jelly.wdm.time.1728.1683120590.4,60일 DM+12일
2023. 5. 4,(M25)엠이오,1188602415,CLASS:y,RIWON,O160_230001-104,d163,163,RIWON,144.w2a1718f9.jelly.wdm.time.2592.1683120590.5,90일 DM+18일
2023. 5. 4,(M25)엠이오,1188602415,CLASS:y,HYEJU,O160_230001-104,d162,162,HYEJU,144.w299218f9.jelly.wdm.time.720.1683120518.0	,30일 DM
2023. 5. 4,(M25)엠이오,1188602415,CLASS:y,HYEJU,O160_230001-104,d162,162,HYEJU,144.w299218f9.jelly.wdm.time.1440.1683120518.1,60일 DM
2023. 5. 4,(M25)엠이오,1188602415,CLASS:y,HYEJU,O160_230001-104,d162,162,HYEJU,144.w299218f9.jelly.wdm.time.2160.1683120518.2,90일 DM
2023. 5. 4,(M25)엠이오,1188602415,CLASS:y,HYEJU,O160_230001-104,d162,162,HYEJU,144.w299218f9.jelly.wdm.time.864.1683120518.3,30일 DM+6일
2023. 5. 4,(M25)엠이오,1188602415,CLASS:y,HYEJU,O160_230001-104,d162,162,HYEJU,144.w299218f9.jelly.wdm.time.1728.1683120518.4,60일 DM+12일
2023. 5. 4,(M25)엠이오,1188602415,CLASS:y,HYEJU,O160_230001-104,d162,162,HYEJU,144.w299218f9.jelly.wdm.time.2592.1683120518.5,90일 DM+18일
2023. 5. 4,(M25)엠이오,1188602415,CLASS:y,CHAEWON,O160_230001-104,d160,160,CHAEWON,144.w294518f9.jelly.wdm.time.720.1683120412.0,30일 DM
2023. 5. 4,(M25)엠이오,1188602415,CLASS:y,CHAEWON,O160_230001-104,d160,160,CHAEWON,144.w294518f9.jelly.wdm.time.1440.1683120412.1,60일 DM
2023. 5. 4,(M25)엠이오,1188602415,CLASS:y,CHAEWON,O160_230001-104,d160,160,CHAEWON,144.w294518f9.jelly.wdm.time.2160.1683120412.2,90일 DM
2023. 5. 4,(M25)엠이오,1188602415,CLASS:y,CHAEWON,O160_230001-104,d160,160,CHAEWON,144.w294518f9.jelly.wdm.time.864.1683120412.3,30일 DM+6일
2023. 5. 4,(M25)엠이오,1188602415,CLASS:y,CHAEWON,O160_230001-104,d160,160,CHAEWON,144.w294518f9.jelly.wdm.time.1728.1683120412.4,60일 DM+12일
2023. 5. 4,(M25)엠이오,1188602415,CLASS:y,CHAEWON,O160_230001-104,d160,160,CHAEWON,144.w294518f9.jelly.wdm.time.2592.1683120412.5,90일 DM+18일
2023. 5. 4,(M25)엠이오,1188602415,CLASS:y,HYUNGSEO,O160_230001-104,d159,159,HYUNGSEO,144.w290d18f9.jelly.wdm.time.720.1683089767.0,30일 DM
2023. 5. 4,(M25)엠이오,1188602415,CLASS:y,HYUNGSEO,O160_230001-104,d159,159,HYUNGSEO,144.w290d18f9.jelly.wdm.time.1440.1683089767.1,60일 DM
2023. 5. 4,(M25)엠이오,1188602415,CLASS:y,HYUNGSEO,O160_230001-104,d159,159,HYUNGSEO,144.w290d18f9.jelly.wdm.time.2160.1683089767.2,90일 DM
2023. 5. 4,(M25)엠이오,1188602415,CLASS:y,HYUNGSEO,O160_230001-104,d159,159,HYUNGSEO,144.w290d18f9.jelly.wdm.time.864.1683089767.3,30일 DM+6일
2023. 5. 4,(M25)엠이오,1188602415,CLASS:y,HYUNGSEO,O160_230001-104,d159,159,HYUNGSEO,144.w290d18f9.jelly.wdm.time.1728.1683089767.4,60일 DM+12일
2023. 5. 4,(M25)엠이오,1188602415,CLASS:y,HYUNGSEO,O160_230001-104,d159,159,HYUNGSEO,144.w290d18f9.jelly.wdm.time.2592.1683089767.5,90일 DM+18일
2023. 5. 9,주식회사 큐브엔터테인먼트,1078799106,PENTAGON,JINHO,Q160_230001-104,d167,167,JINHO,96.w897018ac.jelly.wdm.time.720.1683520257.0,30일 DM
2023. 5. 9,주식회사 큐브엔터테인먼트,1078799106,PENTAGON,JINHO,Q160_230001-104,d167,167,JINHO,96.w897018ac.jelly.wdm.time.1440.1683520257.1,60일 DM
2023. 5. 9,주식회사 큐브엔터테인먼트,1078799106,PENTAGON,JINHO,Q160_230001-104,d167,167,JINHO,96.w897018ac.jelly.wdm.time.2160.1683520257.2,90일 DM
2023. 5. 9,주식회사 큐브엔터테인먼트,1078799106,PENTAGON,JINHO,Q160_230001-104,d167,167,JINHO,96.w897018ac.jelly.wdm.time.864.1683520257.3,30일 DM+6일
2023. 5. 9,주식회사 큐브엔터테인먼트,1078799106,PENTAGON,JINHO,Q160_230001-104,d167,167,JINHO,96.w897018ac.jelly.wdm.time.1728.1683520257.4,60일 DM+12일
2023. 5. 9,주식회사 큐브엔터테인먼트,1078799106,PENTAGON,JINHO,Q160_230001-104,d167,167,JINHO,96.w897018ac.jelly.wdm.time.2592.1683520257.5,90일 DM+18일
2023. 5. 9,주식회사 큐브엔터테인먼트,1078799106,PENTAGON,HUI,Q160_230001-104,d168,168,HUI,96.w8b4c18ac.jelly.wdm.time.720.1683529371.0,30일 DM
2023. 5. 9,주식회사 큐브엔터테인먼트,1078799106,PENTAGON,HUI,Q160_230001-104,d168,168,HUI,96.w8b4c18ac.jelly.wdm.time.1440.1683529371.1,60일 DM
2023. 5. 9,주식회사 큐브엔터테인먼트,1078799106,PENTAGON,HUI,Q160_230001-104,d168,168,HUI,96.w8b4c18ac.jelly.wdm.time.2160.1683529371.2,90일 DM
2023. 5. 9,주식회사 큐브엔터테인먼트,1078799106,PENTAGON,HUI,Q160_230001-104,d168,168,HUI,96.w8b4c18ac.jelly.wdm.time.864.1683529371.3	,30일 DM+6일
2023. 5. 9,주식회사 큐브엔터테인먼트,1078799106,PENTAGON,HUI,Q160_230001-104,d168,168,HUI,96.w8b4c18ac.jelly.wdm.time.1728.1683529371.4,60일 DM+12일
2023. 5. 9,주식회사 큐브엔터테인먼트,1078799106,PENTAGON,HUI,Q160_230001-104,d168,168,HUI,96.w8b4c18ac.jelly.wdm.time.2592.1683529371.5,90일 DM+18일
2023. 5. 9,주식회사 큐브엔터테인먼트,1078799106,PENTAGON,HONGSEOK,Q160_230001-104,d169,169,HONGSEOK,96.w8b7d18ac.jelly.wdm.time.720.1683529581.0,30일 DM
2023. 5. 9,주식회사 큐브엔터테인먼트,1078799106,PENTAGON,HONGSEOK,Q160_230001-104,d169,169,HONGSEOK,96.w8b7d18ac.jelly.wdm.time.1440.1683529581.1,60일 DM
2023. 5. 9,주식회사 큐브엔터테인먼트,1078799106,PENTAGON,HONGSEOK,Q160_230001-104,d169,169,HONGSEOK,96.w8b7d18ac.jelly.wdm.time.2160.1683529581.2,90일 DM
2023. 5. 9,주식회사 큐브엔터테인먼트,1078799106,PENTAGON,HONGSEOK,Q160_230001-104,d169,169,HONGSEOK,96.w8b7d18ac.jelly.wdm.time.864.1683529581.3,30일 DM+6일
2023. 5. 9,주식회사 큐브엔터테인먼트,1078799106,PENTAGON,HONGSEOK,Q160_230001-104,d169,169,HONGSEOK,96.w8b7d18ac.jelly.wdm.time.1728.1683529581.4,60일 DM+12일
2023. 5. 9,주식회사 큐브엔터테인먼트,1078799106,PENTAGON,HONGSEOK,Q160_230001-104,d169,169,HONGSEOK,96.w8b7d18ac.jelly.wdm.time.2592.1683529581.5,90일 DM+18일
2023. 5. 9,주식회사 큐브엔터테인먼트,1078799106,PENTAGON,SHINWON,Q160_230001-104,d170,170,SHINWON,96.w8d1318ac.jelly.wdm.time.720.1683529668.0,30일 DM
2023. 5. 9,주식회사 큐브엔터테인먼트,1078799106,PENTAGON,SHINWON,Q160_230001-104,d170,170,SHINWON,96.w8d1318ac.jelly.wdm.time.1440.1683529668.1,60일 DM
2023. 5. 9,주식회사 큐브엔터테인먼트,1078799106,PENTAGON,SHINWON,Q160_230001-104,d170,170,SHINWON,96.w8d1318ac.jelly.wdm.time.2160.1683529668.2,90일 DM
2023. 5. 9,주식회사 큐브엔터테인먼트,1078799106,PENTAGON,SHINWON,Q160_230001-104,d170,170,SHINWON,96.w8d1318ac.jelly.wdm.time.864.1683529668.3,30일 DM+6일
2023. 5. 9,주식회사 큐브엔터테인먼트,1078799106,PENTAGON,SHINWON,Q160_230001-104,d170,170,SHINWON,96.w8d1318ac.jelly.wdm.time.1728.1683529668.4,60일 DM+12일
2023. 5. 9,주식회사 큐브엔터테인먼트,1078799106,PENTAGON,SHINWON,Q160_230001-104,d170,170,SHINWON,96.w8d1318ac.jelly.wdm.time.2592.1683529668.5,90일 DM+18일
2023. 5. 9,주식회사 큐브엔터테인먼트,1078799106,PENTAGON,YEOONE,Q160_230001-104,d171,171,YEOONE,96.w8d3d18ac.jelly.wdm.time.720.1683529736.0,30일 DM
2023. 5. 9,주식회사 큐브엔터테인먼트,1078799106,PENTAGON,YEOONE,Q160_230001-104,d171,171,YEOONE,96.w8d3d18ac.jelly.wdm.time.1440.1683529736.1,60일 DM
2023. 5. 9,주식회사 큐브엔터테인먼트,1078799106,PENTAGON,YEOONE,Q160_230001-104,d171,171,YEOONE,96.w8d3d18ac.jelly.wdm.time.2160.1683529736.2,90일 DM
2023. 5. 9,주식회사 큐브엔터테인먼트,1078799106,PENTAGON,YEOONE,Q160_230001-104,d171,171,YEOONE,96.w8d3d18ac.jelly.wdm.time.864.1683529736.3,30일 DM+6일
2023. 5. 9,주식회사 큐브엔터테인먼트,1078799106,PENTAGON,YEOONE,Q160_230001-104,d171,171,YEOONE,96.w8d3d18ac.jelly.wdm.time.1728.1683529736.4,60일 DM+12일
2023. 5. 9,주식회사 큐브엔터테인먼트,1078799106,PENTAGON,YEOONE,Q160_230001-104,d171,171,YEOONE,96.w8d3d18ac.jelly.wdm.time.2592.1683529736.5,90일 DM+18일
2023. 5. 9,주식회사 큐브엔터테인먼트,1078799106,PENTAGON,YUTO,Q160_230001-104,d172,172,YUTO,96.w8d6e18ac.jelly.wdm.time.720.1683529821.0,30일 DM
2023. 5. 9,주식회사 큐브엔터테인먼트,1078799106,PENTAGON,YUTO,Q160_230001-104,d172,172,YUTO,96.w8d6e18ac.jelly.wdm.time.1440.1683529821.1,60일 DM
2023. 5. 9,주식회사 큐브엔터테인먼트,1078799106,PENTAGON,YUTO,Q160_230001-104,d172,172,YUTO,96.w8d6e18ac.jelly.wdm.time.2160.1683529821.2,90일 DM
2023. 5. 9,주식회사 큐브엔터테인먼트,1078799106,PENTAGON,YUTO,Q160_230001-104,d172,172,YUTO,96.w8d6e18ac.jelly.wdm.time.864.1683529821.3,30일 DM+6일
2023. 5. 9,주식회사 큐브엔터테인먼트,1078799106,PENTAGON,YUTO,Q160_230001-104,d172,172,YUTO,96.w8d6e18ac.jelly.wdm.time.1728.1683529821.4,60일 DM+12일
2023. 5. 9,주식회사 큐브엔터테인먼트,1078799106,PENTAGON,YUTO,Q160_230001-104,d172,172,YUTO,96.w8d6e18ac.jelly.wdm.time.2592.1683529821.5,90일 DM+18일
2023. 5. 9,주식회사 큐브엔터테인먼트,1078799106,PENTAGON,KINO,Q160_230001-104,d173,173,KINO,96.w8dd718ac.jelly.wdm.time.720.1683529893.0,30일 DM
2023. 5. 9,주식회사 큐브엔터테인먼트,1078799106,PENTAGON,KINO,Q160_230001-104,d173,173,KINO,96.w8dd718ac.jelly.wdm.time.1440.1683529893.1,60일 DM
2023. 5. 9,주식회사 큐브엔터테인먼트,1078799106,PENTAGON,KINO,Q160_230001-104,d173,173,KINO,96.w8dd718ac.jelly.wdm.time.2160.1683529893.2,90일 DM
2023. 5. 9,주식회사 큐브엔터테인먼트,1078799106,PENTAGON,KINO,Q160_230001-104,d173,173,KINO,96.w8dd718ac.jelly.wdm.time.864.1683529893.3,30일 DM+6일
2023. 5. 9,주식회사 큐브엔터테인먼트,1078799106,PENTAGON,KINO,Q160_230001-104,d173,173,KINO,96.w8dd718ac.jelly.wdm.time.1728.1683529893.4	,60일 DM+12일
2023. 5. 9,주식회사 큐브엔터테인먼트,1078799106,PENTAGON,KINO,Q160_230001-104,d173,173,KINO,96.w8dd718ac.jelly.wdm.time.2592.1683529893.5,90일 DM+18일
2023. 5. 9,주식회사 큐브엔터테인먼트,1078799106,PENTAGON,WOOSEOK,Q160_230001-104,d174,174,WOOSEOK,96.w8dec18ac.jelly.wdm.time.720.1683529967.0,30일 DM
2023. 5. 9,주식회사 큐브엔터테인먼트,1078799106,PENTAGON,WOOSEOK,Q160_230001-104,d174,174,WOOSEOK,96.w8dec18ac.jelly.wdm.time.1440.1683529967.1,60일 DM
2023. 5. 9,주식회사 큐브엔터테인먼트,1078799106,PENTAGON,WOOSEOK,Q160_230001-104,d174,174,WOOSEOK,96.w8dec18ac.jelly.wdm.time.2160.1683529967.2,90일 DM
2023. 5. 9,주식회사 큐브엔터테인먼트,1078799106,PENTAGON,WOOSEOK,Q160_230001-104,d174,174,WOOSEOK,96.w8dec18ac.jelly.wdm.time.864.1683529967.3,30일 DM+6일
2023. 5. 9,주식회사 큐브엔터테인먼트,1078799106,PENTAGON,WOOSEOK,Q160_230001-104,d174,174,WOOSEOK,96.w8dec18ac.jelly.wdm.time.1728.1683529967.4,60일 DM+12일
2023. 5. 9,주식회사 큐브엔터테인먼트,1078799106,PENTAGON,WOOSEOK,Q160_230001-104,d174,174,WOOSEOK,96.w8dec18ac.jelly.wdm.time.2592.1683529967.5,90일 DM+18일
2023. 5. 12,피네이션 주식회사,3798101210,TNX,Jun Hyeok,TX60_230001-104,d183,183,Jun Hyeok,55.wb0fdd86.jelly.wdm.time.720.1683617097.0,30일 DM
2023. 5. 12,피네이션 주식회사,3798101210,TNX,Jun Hyeok,TX60_230001-104,d183,183,Jun Hyeok,55.wb0fdd86.jelly.wdm.time.1440.1683617097.1,60일 DM
2023. 5. 12,피네이션 주식회사,3798101210,TNX,Jun Hyeok,TX60_230001-104,d183,183,Jun Hyeok,55.wb0fdd86.jelly.wdm.time.2160.1683617097.2,90일 DM
2023. 5. 12,피네이션 주식회사,3798101210,TNX,Jun Hyeok,TX60_230001-104,d183,183,Jun Hyeok,55.wb0fdd86.jelly.wdm.time.864.1683617097.3,30일 DM+6일
2023. 5. 12,피네이션 주식회사,3798101210,TNX,Jun Hyeok,TX60_230001-104,d183,183,Jun Hyeok,55.wb0fdd86.jelly.wdm.time.1728.1683617097.4,60일 DM+12일
2023. 5. 12,피네이션 주식회사,3798101210,TNX,Jun Hyeok,TX60_230001-104,d183,183,Jun Hyeok,55.wb0fdd86.jelly.wdm.time.2592.1683617097.5,90일 DM+18일
2023. 5. 12,피네이션 주식회사,3798101210,TNX,Sung Jun,TX60_230001-104,d185,185,Sung Jun,55.wb13cd86.jelly.wdm.time.720.1683617651.0,30일 DM
2023. 5. 12,피네이션 주식회사,3798101210,TNX,Sung Jun,TX60_230001-104,d185,185,Sung Jun,55.wb13cd86.jelly.wdm.time.1440.1683617651.1,60일 DM
2023. 5. 12,피네이션 주식회사,3798101210,TNX,Sung Jun,TX60_230001-104,d185,185,Sung Jun,55.wb13cd86.jelly.wdm.time.2160.1683617651.2,90일 DM
2023. 5. 12,피네이션 주식회사,3798101210,TNX,Sung Jun,TX60_230001-104,d185,185,Sung Jun,55.wb13cd86.jelly.wdm.time.864.1683617651.3,30일 DM+6일
2023. 5. 12,피네이션 주식회사,3798101210,TNX,Sung Jun,TX60_230001-104,d185,185,Sung Jun,55.wb13cd86.jelly.wdm.time.1728.1683617651.4,60일 DM+12일
2023. 5. 12,피네이션 주식회사,3798101210,TNX,Sung Jun,TX60_230001-104,d185,185,Sung Jun,55.wb13cd86.jelly.wdm.time.2592.1683617651.5,90일 DM+18일
2023. 5. 12,피네이션 주식회사,3798101210,TNX,Hwi,TX60_230001-104,d184,184,Hwi,55.wb10bd86.jelly.wdm.time.720.1683617394.0,30일 DM
2023. 5. 12,피네이션 주식회사,3798101210,TNX,Hwi,TX60_230001-104,d184,184,Hwi,55.wb10bd86.jelly.wdm.time.1440.1683617394.1,60일 DM
2023. 5. 12,피네이션 주식회사,3798101210,TNX,Hwi,TX60_230001-104,d184,184,Hwi,55.wb10bd86.jelly.wdm.time.2160.1683617394.2,90일 DM
2023. 5. 12,피네이션 주식회사,3798101210,TNX,Hwi,TX60_230001-104,d184,184,Hwi,55.wb10bd86.jelly.wdm.time.864.1683617394.3,30일 DM+6일
2023. 5. 12,피네이션 주식회사,3798101210,TNX,Hwi,TX60_230001-104,d184,184,Hwi,55.wb10bd86.jelly.wdm.time.1728.1683617394.4,60일 DM+12일
2023. 5. 12,피네이션 주식회사,3798101210,TNX,Hwi,TX60_230001-104,d184,184,Hwi,55.wb10bd86.jelly.wdm.time.2592.1683617394.5,90일 DM+18일
2023. 5. 12,피네이션 주식회사,3798101210,TNX,Hyun Soo,TX60_230001-104,"d182","82",Hyun Soo,55.wb0d3d86.jelly.wdm.time.720.1683617012.0,30일 DM
2023. 5. 12,피네이션 주식회사,3798101210,TNX,Hyun Soo,TX60_230001-104,"d182","82",Hyun Soo,55.wb0d3d86.jelly.wdm.time.1440.1683617012.1,60일 DM
2023. 5. 12,피네이션 주식회사,3798101210,TNX,Hyun Soo,TX60_230001-104,"d182","82",Hyun Soo,55.wb0d3d86.jelly.wdm.time.2160.1683617012.2,90일 DM
2023. 5. 12,피네이션 주식회사,3798101210,TNX,Hyun Soo,TX60_230001-104,"d182","82",Hyun Soo,55.wb0d3d86.jelly.wdm.time.864.1683617012.3,30일 DM+6일
2023. 5. 12,피네이션 주식회사,3798101210,TNX,Hyun Soo,TX60_230001-104,"d182","82",Hyun Soo,55.wb0d3d86.jelly.wdm.time.1728.1683617012.4,60일 DM+12일
2023. 5. 12,피네이션 주식회사,3798101210,TNX,Hyun Soo,TX60_230001-104,"d182","82",Hyun Soo,55.wb0d3d86.jelly.wdm.time.2592.1683617012.5,90일 DM+18일
2023. 5. 12,피네이션 주식회사,3798101210,TNX,Kyung Jun,TX60_230001-104,d181,181,Kyung Jun,55.wb0c5d86.jelly.wdm.time.720.1683616839.0,30일 DM
2023. 5. 12,피네이션 주식회사,3798101210,TNX,Kyung Jun,TX60_230001-104,d181,181,Kyung Jun,55.wb0c5d86.jelly.wdm.time.1440.1683616839.1,60일 DM
2023. 5. 12,피네이션 주식회사,3798101210,TNX,Kyung Jun,TX60_230001-104,d181,181,Kyung Jun,55.wb0c5d86.jelly.wdm.time.2160.1683616839.2,90일 DM
2023. 5. 12,피네이션 주식회사,3798101210,TNX,Kyung Jun,TX60_230001-104,d181,181,Kyung Jun,55.wb0c5d86.jelly.wdm.time.864.1683616839.3,30일 DM+6일
2023. 5. 12,피네이션 주식회사,3798101210,TNX,Kyung Jun,TX60_230001-104,d181,181,Kyung Jun,55.wb0c5d86.jelly.wdm.time.1728.1683616839.4,60일 DM+12일
2023. 5. 12,피네이션 주식회사,3798101210,TNX,Kyung Jun,TX60_230001-104,d181,181,Kyung Jun,55.wb0c5d86.jelly.wdm.time.2592.1683616839.5,90일 DM+18일
2023. 5. 12,피네이션 주식회사,3798101210,TNX,Tae Hun,TX60_230001-104,d180,180,Tae Hun,55.wb0b7d86.jelly.wdm.time.720.1683616629.0,30일 DM
2023. 5. 12,피네이션 주식회사,3798101210,TNX,Tae Hun,TX60_230001-104,d180,180,Tae Hun,55.wb0b7d86.jelly.wdm.time.1440.1683616629.1,60일 DM
2023. 5. 12,피네이션 주식회사,3798101210,TNX,Tae Hun,TX60_230001-104,d180,180,Tae Hun,55.wb0b7d86.jelly.wdm.time.2160.1683616629.2,90일 DM
2023. 5. 12,피네이션 주식회사,3798101210,TNX,Tae Hun,TX60_230001-104,d180,180,Tae Hun,55.wb0b7d86.jelly.wdm.time.864.1683616629.3,30일 DM+6일
2023. 5. 12,피네이션 주식회사,3798101210,TNX,Tae Hun,TX60_230001-104,d180,180,Tae Hun,55.wb0b7d86.jelly.wdm.time.1728.1683616629.4,60일 DM+12일
2023. 5. 12,피네이션 주식회사,3798101210,TNX,Tae Hun,TX60_230001-104,d180,180,Tae Hun,55.wb0b7d86.jelly.wdm.time.2592.1683616629.5,90일 DM+18일
2023. 5. 16,주식회사 지에프엔터테인먼트,8938700927,KINGDOM,DANN,KD60_230001-104,d186,186,DANN,49.w2489d42.jelly.wdm.time.720.1683783238.0,30일 DM
2023. 5. 16,주식회사 지에프엔터테인먼트,8938700927,KINGDOM,DANN,KD60_230001-104,d186,186,DANN,49.w2489d42.jelly.wdm.time.1440.1683783238.1	,60일 DM
2023. 5. 16,주식회사 지에프엔터테인먼트,8938700927,KINGDOM,DANN,KD60_230001-104,d186,186,DANN,49.w2489d42.jelly.wdm.time.2160.1683783238.2	,90일 DM
2023. 5. 16,주식회사 지에프엔터테인먼트,8938700927,KINGDOM,DANN,KD60_230001-104,d186,186,DANN,49.w2489d42.jelly.wdm.time.864.1683783238.3,30일 DM+6일
2023. 5. 16,주식회사 지에프엔터테인먼트,8938700927,KINGDOM,DANN,KD60_230001-104,d186,186,DANN,49.w2489d42.jelly.wdm.time.1728.1683783238.4,60일 DM+12일
2023. 5. 16,주식회사 지에프엔터테인먼트,8938700927,KINGDOM,DANN,KD60_230001-104,d186,186,DANN,49.w2489d42.jelly.wdm.time.2592.1683783238.5	,90일 DM+18일
2023. 5. 16,주식회사 지에프엔터테인먼트,8938700927,KINGDOM,ARTHUR,KD60_230001-104,d187,187,ARTHUR,49.w24b3d42.jelly.wdm.time.720.1683784073.0,30일 DM
2023. 5. 16,주식회사 지에프엔터테인먼트,8938700927,KINGDOM,ARTHUR,KD60_230001-104,d187,187,ARTHUR,49.w24b3d42.jelly.wdm.time.1440.1683784073.1,60일 DM
2023. 5. 16,주식회사 지에프엔터테인먼트,8938700927,KINGDOM,ARTHUR,KD60_230001-104,d187,187,ARTHUR,49.w24b3d42.jelly.wdm.time.2160.1683784073.2,90일 DM
2023. 5. 16,주식회사 지에프엔터테인먼트,8938700927,KINGDOM,ARTHUR,KD60_230001-104,d187,187,ARTHUR,49.w24b3d42.jelly.wdm.time.864.1683784073.3,30일 DM+6일
2023. 5. 16,주식회사 지에프엔터테인먼트,8938700927,KINGDOM,ARTHUR,KD60_230001-104,d187,187,ARTHUR,49.w24b3d42.jelly.wdm.time.1728.1683784073.4,60일 DM+12일
2023. 5. 16,주식회사 지에프엔터테인먼트,8938700927,KINGDOM,ARTHUR,KD60_230001-104,d187,187,ARTHUR,49.w24b3d42.jelly.wdm.time.2592.1683784073.5,90일 DM+18일
2023. 5. 16,주식회사 지에프엔터테인먼트,8938700927,KINGDOM,MUJIN,KD60_230001-104,d188,188,MUJIN,49.w24f9d42.jelly.wdm.time.720.1683784173.0,30일 DM
2023. 5. 16,주식회사 지에프엔터테인먼트,8938700927,KINGDOM,MUJIN,KD60_230001-104,d188,188,MUJIN,49.w24f9d42.jelly.wdm.time.1440.1683784173.1,60일 DM
2023. 5. 16,주식회사 지에프엔터테인먼트,8938700927,KINGDOM,MUJIN,KD60_230001-104,d188,188,MUJIN,49.w24f9d42.jelly.wdm.time.2160.1683784173.2,90일 DM
2023. 5. 16,주식회사 지에프엔터테인먼트,8938700927,KINGDOM,MUJIN,KD60_230001-104,d188,188,MUJIN,49.w24f9d42.jelly.wdm.time.864.1683784173.3,30일 DM+6일
2023. 5. 16,주식회사 지에프엔터테인먼트,8938700927,KINGDOM,MUJIN,KD60_230001-104,d188,188,MUJIN,49.w24f9d42.jelly.wdm.time.1728.1683784173.4,60일 DM+12일
2023. 5. 16,주식회사 지에프엔터테인먼트,8938700927,KINGDOM,MUJIN,KD60_230001-104,d188,188,MUJIN,49.w24f9d42.jelly.wdm.time.2592.1683784173.5,90일 DM+18일
2023. 5. 16,주식회사 지에프엔터테인먼트,8938700927,KINGDOM,LOUIS,KD60_230001-104,d189,189,LOUIS,49.w2538d42.jelly.wdm.time.720.1683784241.0,30일 DM
2023. 5. 16,주식회사 지에프엔터테인먼트,8938700927,KINGDOM,LOUIS,KD60_230001-104,d189,189,LOUIS,49.w2538d42.jelly.wdm.time.1440.1683784241.1,60일 DM
2023. 5. 16,주식회사 지에프엔터테인먼트,8938700927,KINGDOM,LOUIS,KD60_230001-104,d189,189,LOUIS,49.w2538d42.jelly.wdm.time.2160.1683784241.2,90일 DM
2023. 5. 16,주식회사 지에프엔터테인먼트,8938700927,KINGDOM,LOUIS,KD60_230001-104,d189,189,LOUIS,49.w2538d42.jelly.wdm.time.864.1683784241.3,30일 DM+6일
2023. 5. 16,주식회사 지에프엔터테인먼트,8938700927,KINGDOM,LOUIS,KD60_230001-104,d189,189,LOUIS,49.w2538d42.jelly.wdm.time.1728.1683784241.4,60일 DM+12일
2023. 5. 16,주식회사 지에프엔터테인먼트,8938700927,KINGDOM,LOUIS,KD60_230001-104,d189,189,LOUIS,49.w2538d42.jelly.wdm.time.2592.1683784241.5,90일 DM+18일
2023. 5. 16,주식회사 지에프엔터테인먼트,8938700927,KINGDOM,IVAN,KD60_230001-104,d190,190,IVAN,49.w2562d42.jelly.wdm.time.720.1683784301.0,30일 DM
2023. 5. 16,주식회사 지에프엔터테인먼트,8938700927,KINGDOM,IVAN,KD60_230001-104,d190,190,IVAN,49.w2562d42.jelly.wdm.time.1440.1683784301.1,60일 DM
2023. 5. 16,주식회사 지에프엔터테인먼트,8938700927,KINGDOM,IVAN,KD60_230001-104,d190,190,IVAN,49.w2562d42.jelly.wdm.time.2160.1683784301.2,90일 DM
2023. 5. 16,주식회사 지에프엔터테인먼트,8938700927,KINGDOM,IVAN,KD60_230001-104,d190,190,IVAN,49.w2562d42.jelly.wdm.time.864.1683784301.3,30일 DM+6일
2023. 5. 16,주식회사 지에프엔터테인먼트,8938700927,KINGDOM,IVAN,KD60_230001-104,d190,190,IVAN,49.w2562d42.jelly.wdm.time.1728.1683784301.4,60일 DM+12일
2023. 5. 16,주식회사 지에프엔터테인먼트,8938700927,KINGDOM,IVAN,KD60_230001-104,d190,190,IVAN,49.w2562d42.jelly.wdm.time.2592.1683784301.5,90일 DM+18일
2023. 5. 16,주식회사 지에프엔터테인먼트,8938700927,KINGDOM,JAHAN,KD60_230001-104,d191,191,JAHAN,49.w257ed42.jelly.wdm.time.720.1683784356.0,30일 DM
2023. 5. 16,주식회사 지에프엔터테인먼트,8938700927,KINGDOM,JAHAN,KD60_230001-104,d191,191,JAHAN,49.w257ed42.jelly.wdm.time.1440.1683784356.1,60일 DM
2023. 5. 16,주식회사 지에프엔터테인먼트,8938700927,KINGDOM,JAHAN,KD60_230001-104,d191,191,JAHAN,49.w257ed42.jelly.wdm.time.2160.1683784356.2,90일 DM
2023. 5. 16,주식회사 지에프엔터테인먼트,8938700927,KINGDOM,JAHAN,KD60_230001-104,d191,191,JAHAN,49.w257ed42.jelly.wdm.time.864.1683784356.3,30일 DM+6일
2023. 5. 16,주식회사 지에프엔터테인먼트,8938700927,KINGDOM,JAHAN,KD60_230001-104,d191,191,JAHAN,49.w257ed42.jelly.wdm.time.1728.1683784356.4,60일 DM+12일
2023. 5. 16,주식회사 지에프엔터테인먼트,8938700927,KINGDOM,JAHAN,KD60_230001-104,d191,191,JAHAN,49.w257ed42.jelly.wdm.time.2592.1683784356.5,90일 DM+18일
2023. 5. 16,주식회사 지에프엔터테인먼트,8938700927,KINGDOM,HWON,KD60_230001-104,d192,192,HWON,49.waec81565.jelly.wdm.time.720.1683784433.0,30일 DM
2023. 5. 16,주식회사 지에프엔터테인먼트,8938700927,KINGDOM,HWON,KD60_230001-104,d192,192,HWON,49.waec81565.jelly.wdm.time.1440.1683784433.1	,60일 DM
2023. 5. 16,주식회사 지에프엔터테인먼트,8938700927,KINGDOM,HWON,KD60_230001-104,d192,192,HWON,49.waec81565.jelly.wdm.time.2160.1683784433.2,90일 DM
2023. 5. 16,주식회사 지에프엔터테인먼트,8938700927,KINGDOM,HWON,KD60_230001-104,d192,192,HWON,49.waec81565.jelly.wdm.time.864.1683784433.3,30일 DM+6일
2023. 5. 16,주식회사 지에프엔터테인먼트,8938700927,KINGDOM,HWON,KD60_230001-104,d192,192,HWON,49.waec81565.jelly.wdm.time.1728.1683784433.4,60일 DM+12일
2023. 5. 16,주식회사 지에프엔터테인먼트,8938700927,KINGDOM,HWON,KD60_230001-104,d192,192,HWON,49.waec81565.jelly.wdm.time.2592.1683784433.5,90일 DM+18일
2023. 5. 19,(주)지에이치엔터테인먼트,1058723046,B.I.G,J-HOON,R160_230001-104,d194,194,J-HOON,74.w621015d4.jelly.wdm.time.720.1684233963.0,30일 DM
2023. 5. 19,(주)지에이치엔터테인먼트,1058723046,B.I.G,J-HOON,R160_230001-104,d194,194,J-HOON,74.w621015d4.jelly.wdm.time.1440.1684233963.1,60일 DM
2023. 5. 19,(주)지에이치엔터테인먼트,1058723046,B.I.G,J-HOON,R160_230001-104,d194,194,J-HOON,74.w621015d4.jelly.wdm.time.2160.1684233963.2,90일 DM
2023. 5. 19,(주)지에이치엔터테인먼트,1058723046,B.I.G,J-HOON,R160_230001-104,d194,194,J-HOON,74.w621015d4.jelly.wdm.time.864.1684233963.3,30일 DM+6일
2023. 5. 19,(주)지에이치엔터테인먼트,1058723046,B.I.G,J-HOON,R160_230001-104,d194,194,J-HOON,74.w621015d4.jelly.wdm.time.1728.1684233963.4,60일 DM+12일
2023. 5. 19,(주)지에이치엔터테인먼트,1058723046,B.I.G,J-HOON,R160_230001-104,d194,194,J-HOON,74.w621015d4.jelly.wdm.time.2592.1684233963.5,90일 DM+18일
2023. 5. 19,(주)지에이치엔터테인먼트,1058723046,B.I.G,HEEDO,R160_230001-104,"d195",195,HEEDO,74.w624815d4.jelly.wdm.time.720.1684234147.0,30일 DM
2023. 5. 19,(주)지에이치엔터테인먼트,1058723046,B.I.G,HEEDO,R160_230001-104,"d195",195,HEEDO,74.w624815d4.jelly.wdm.time.1440.1684234147.1,60일 DM
2023. 5. 19,(주)지에이치엔터테인먼트,1058723046,B.I.G,HEEDO,R160_230001-104,"d195",195,HEEDO,74.w624815d4.jelly.wdm.time.2160.1684234147.2,90일 DM
2023. 5. 19,(주)지에이치엔터테인먼트,1058723046,B.I.G,HEEDO,R160_230001-104,"d195",195,HEEDO,74.w624815d4.jelly.wdm.time.864.1684234147.3,30일 DM+6일
2023. 5. 19,(주)지에이치엔터테인먼트,1058723046,B.I.G,HEEDO,R160_230001-104,"d195",195,HEEDO,74.w624815d4.jelly.wdm.time.1728.1684234147.4,60일 DM+12일
2023. 5. 19,(주)지에이치엔터테인먼트,1058723046,B.I.G,HEEDO,R160_230001-104,"d195",195,HEEDO,74.w624815d4.jelly.wdm.time.2592.1684234147.5,90일 DM+18일
2023. 5. 19,(주)지에이치엔터테인먼트,1058723046,B.I.G,JINSEOK,R160_230001-104,d197,197,JINSEOK,74.w629c15d4.jelly.wdm.time.720.1684234289.0,30일 DM
2023. 5. 19,(주)지에이치엔터테인먼트,1058723046,B.I.G,JINSEOK,R160_230001-104,d197,197,JINSEOK,74.w629c15d4.jelly.wdm.time.1440.1684234289.1,60일 DM
2023. 5. 19,(주)지에이치엔터테인먼트,1058723046,B.I.G,JINSEOK,R160_230001-104,d197,197,JINSEOK,74.w629c15d4.jelly.wdm.time.2160.1684234289.2,90일 DM
2023. 5. 19,(주)지에이치엔터테인먼트,1058723046,B.I.G,JINSEOK,R160_230001-104,d197,197,JINSEOK,74.w629c15d4.jelly.wdm.time.864.1684234289.3,30일 DM+6일
2023. 5. 19,(주)지에이치엔터테인먼트,1058723046,B.I.G,JINSEOK,R160_230001-104,d197,197,JINSEOK,74.w629c15d4.jelly.wdm.time.1728.1684234289.4,60일 DM+12일
2023. 5. 19,(주)지에이치엔터테인먼트,1058723046,B.I.G,JINSEOK,R160_230001-104,d197,197,JINSEOK,74.w629c15d4.jelly.wdm.time.2592.1684234289.5,90일 DM+18일